<?xml version="1.0" encoding="UTF-8" standalone="no"?>
<!-- Created with Inkscape (http://www.inkscape.org/) -->

<svg
   xmlns:dc="http://purl.org/dc/elements/1.1/"
   xmlns:cc="http://creativecommons.org/ns#"
   xmlns:rdf="http://www.w3.org/1999/02/22-rdf-syntax-ns#"
   xmlns:svg="http://www.w3.org/2000/svg"
   xmlns="http://www.w3.org/2000/svg"
   version="1.1"
   width="402.97296"
   height="128.91745"
   viewBox="0 0 402.97297 128.91745"
   id="Ebene_2"
   xml:space="preserve"><metadata
   id="metadata3535"><rdf:RDF><cc:Work
       rdf:about=""><dc:format>image/svg+xml</dc:format><dc:type
         rdf:resource="http://purl.org/dc/dcmitype/StillImage" /><dc:title></dc:title></cc:Work></rdf:RDF></metadata><defs
   id="defs3533" />
<g
   transform="translate(-10.998447,-6.547686)"
   id="g3509">
	<path
   d="m 109.663,99.059 c 0,10.961 0,21.923 0,32.885 0,0.726 0.199,1.441 -1.008,1.438 -13.151,-0.047 -26.308,0.184 -39.453,-0.104 C 54.315,132.954 41.334,127.229 30.436,116.77 19.111,105.901 12.537,92.425 11.24,76.38 9.769,58.185 15.02,42.222 26.895,28.822 38.688,15.517 53.436,8.701 70.941,8.629 81.836,8.585 92.732,8.638 103.628,8.595 c 1.108,-0.005 1.487,0.264 1.456,1.472 -0.083,3.186 -0.079,6.378 -0.002,9.563 0.028,1.188 -0.313,1.508 -1.452,1.502 -10.512,-0.044 -21.023,-0.029 -31.534,-0.023 -22.315,0.011 -41.114,15.03 -46.848,37.42 -6.866,26.812 9.934,55.258 36.063,61.076 3.576,0.796 7.181,1.219 10.843,1.205 8.016,-0.033 16.032,-0.03 24.048,0.013 1.077,0.006 1.465,-0.209 1.461,-1.445 -0.046,-13.552 -0.042,-27.104 -0.006,-40.656 0.002,-1.122 -0.286,-1.484 -1.371,-1.423 -1.626,0.091 -3.263,-0.01 -4.894,0.038 -0.837,0.025 -1.191,-0.201 -1.177,-1.162 0.052,-3.438 0.05,-6.876 0,-10.312 -0.013,-0.948 0.32,-1.176 1.168,-1.172 5.711,0.028 11.424,0.048 17.135,-0.01 1.196,-0.013 1.153,0.634 1.152,1.496 -0.011,10.958 -0.007,21.92 -0.007,32.882 z"
   id="path3511"
   style="fill:#c59723" />
	<path
   d="m 315.274,102.142 c 0,-9.865 0.023,-19.732 -0.027,-29.598 -0.007,-1.289 0.27,-1.72 1.578,-1.672 2.973,0.111 5.955,0.123 8.926,-0.004 1.359,-0.059 1.549,0.445 1.532,1.681 -0.064,4.833 -0.03,9.666 -0.024,14.5 0.014,10.763 0.049,21.524 0.022,32.286 -0.003,1.165 0.271,1.497 1.418,1.491 8.638,-0.052 17.295,0.311 25.917,-0.099 17.918,-0.85 31.396,-9.667 40.484,-25.642 4.209,-7.399 6.146,-15.562 6.104,-24.111 -0.129,-26.396 -18.873,-45.674 -40.021,-49.206 -2.562,-0.429 -5.133,-0.666 -7.729,-0.665 -10.656,0.005 -21.312,-0.02 -31.969,0.031 -1.205,0.006 -1.536,-0.34 -1.506,-1.572 0.08,-3.287 0.053,-6.578 0.013,-9.865 -0.011,-0.85 0.245,-1.096 1.059,-1.093 11.712,0.032 23.427,-0.161 35.134,0.09 14.006,0.299 26.311,5.564 36.851,15.04 11.842,10.64 18.876,24.117 20.547,40.31 1.929,18.705 -3.338,35.186 -15.556,49.062 -9.754,11.081 -21.924,17.675 -36.319,19.701 -2.713,0.381 -5.437,0.556 -8.174,0.554 -12.241,-0.011 -24.481,-0.029 -36.722,0.03 -1.299,0.007 -1.573,-0.359 -1.565,-1.651 0.052,-9.865 0.027,-19.732 0.027,-29.598 z"
   id="path3513"
   style="fill:#c59723" />
	<path
   d="m 233.065,70.947 c 0,-20.228 0.016,-40.453 -0.033,-60.678 -0.004,-1.41 0.393,-1.721 1.664,-1.681 3.021,0.095 6.049,0.086 9.068,0.003 1.129,-0.029 1.43,0.291 1.426,1.472 -0.047,10.461 -0.027,20.923 -0.027,31.385 0,25.906 0.01,51.811 -0.03,77.716 -0.003,1.349 0.306,1.715 1.63,1.712 19.582,-0.048 39.161,-0.02 58.742,-0.062 1.295,-0.002 1.717,0.301 1.668,1.702 -0.105,3.185 -0.057,6.376 -0.018,9.562 0.01,0.888 -0.105,1.305 -1.139,1.304 -23.947,-0.032 -47.896,-0.035 -71.844,0.004 -1.221,0.002 -1.117,-0.625 -1.115,-1.462 0.01,-20.326 0.008,-40.651 0.008,-60.977 z"
   id="path3515"
   style="fill:#c59723" />
	<path
   d="m 225.56,40.243 c -4.633,0 -9.086,-0.017 -13.54,0.013 -0.912,0.005 -1.206,-0.71 -1.635,-1.271 -7.313,-9.523 -16.612,-16.043 -28.085,-18.513 -20.328,-4.375 -37.243,2.008 -50.56,18.542 -0.724,0.898 -1.4,1.276 -2.516,1.255 -3.598,-0.07 -7.198,-0.017 -10.798,-0.037 -0.554,-0.004 -1.336,0.312 -1.616,-0.197 -0.322,-0.591 0.357,-1.157 0.66,-1.682 5.855,-10.194 13.761,-18.21 23.795,-23.913 23.203,-13.186 52.004,-9.597 71.575,8.878 5.177,4.887 10.494,11.926 12.72,16.925 z"
   id="path3517"
   style="fill:#c59723" />
	<path
   d="m 225.465,101.912 c -8.653,17.321 -28.879,34 -55.55,33.544 -25.041,-0.428 -44.657,-16.306 -53.259,-33.544 1.315,0 2.533,0 3.75,0 3.12,-0.001 6.24,0.023 9.358,-0.018 0.793,-0.011 1.286,0.249 1.791,0.91 8.461,11.063 19.395,17.925 32.91,19.646 17.621,2.241 32.521,-3.726 44.298,-17.527 1.911,-2.238 3.631,-3.302 6.484,-3.073 3.336,0.267 6.709,0.062 10.218,0.062 z"
   id="path3519"
   style="fill:#c59723" />
	<path
   d="m 139.38,54.985 c 2.095,-0.024 3.962,0.344 5.647,1.418 1.709,1.09 2.664,2.646 2.748,4.773 0.034,0.879 -0.282,1.17 -1.078,1.066 -0.379,-0.049 -0.768,-0.068 -1.148,-0.046 -0.9,0.055 -1.613,0.132 -1.66,-1.272 -0.043,-1.265 -1.221,-1.711 -2.269,-1.957 -1.322,-0.308 -2.674,-0.28 -3.995,0.062 -2.145,0.555 -3.244,1.839 -3.392,3.886 -0.17,2.37 0.611,3.757 2.826,4.602 1.658,0.632 3.412,0.992 5.078,1.604 3.17,1.167 5.746,3.044 6.512,6.717 1.217,5.83 -2.356,10.475 -8.298,10.816 -1.933,0.112 -3.836,-0.131 -5.654,-0.847 -2.684,-1.059 -4.263,-3.334 -4.236,-5.958 0.007,-0.685 0.031,-1.179 0.917,-0.985 0.46,0.1 0.961,0.069 1.436,0.011 0.933,-0.113 1.37,0.189 1.46,1.248 0.095,1.143 0.922,1.864 1.904,2.232 1.845,0.693 3.752,0.841 5.637,0.182 1.639,-0.573 2.865,-1.637 3.157,-3.52 0.307,-1.972 -0.242,-3.647 -1.771,-4.914 -1.302,-1.077 -2.834,-1.638 -4.423,-2.062 -1.391,-0.37 -2.773,-0.769 -4.08,-1.412 -3.179,-1.562 -4.39,-4.292 -4.206,-7.782 0.177,-3.382 1.689,-5.857 4.811,-7.113 1.35,-0.54 2.765,-0.786 4.077,-0.749 z"
   id="path3521"
   style="fill:#c59723" />
	<path
   d="m 188.417,72.557 c 0,4.13 -0.029,8.262 0.022,12.392 0.012,0.986 -0.271,1.246 -1.205,1.238 -2.61,-0.021 -2.613,0.025 -2.609,-2.606 0.014,-7.715 0.012,-15.429 0.069,-23.143 0.009,-1.117 -0.193,-1.599 -1.392,-1.515 -1.67,0.116 -3.356,-0.013 -5.033,0.047 -0.849,0.03 -1.162,-0.187 -1.161,-1.146 0.003,-2.509 -0.048,-2.51 2.406,-2.51 5.13,0 10.261,0.03 15.391,-0.024 1.021,-0.011 1.306,0.294 1.266,1.335 -0.105,2.771 0.316,2.276 -2.171,2.323 -1.342,0.024 -2.691,0.082 -4.026,-0.019 -1.164,-0.089 -1.567,0.242 -1.54,1.532 0.084,4.029 0.031,8.063 0.031,12.095 -0.016,0.001 -0.031,0.001 -0.048,0.001 z"
   id="path3523"
   style="fill:#c59723" />
	<path
   d="m 211.222,70.864 c 0,4.634 -0.034,9.269 0.024,13.902 0.014,1.092 -0.226,1.458 -1.336,1.428 -2.479,-0.071 -2.48,-0.003 -2.48,-2.592 0,-7.524 -0.026,-15.051 0.026,-22.574 0.007,-1.229 -0.166,-1.742 -1.528,-1.688 -3.022,0.118 -3.006,0.03 -2.792,-3.167 0.042,-0.635 0.208,-0.875 0.834,-0.866 2.064,0.026 4.129,0.064 6.191,-0.015 0.964,-0.037 1.08,0.378 1.076,1.222 -0.032,4.781 -0.016,9.566 -0.015,14.35 z"
   id="path3525"
   style="fill:#c59723" />
	<path
   d="m 199.904,83.605 c -0.043,2.491 0.313,2.112 -1.885,2.303 -1.586,0.137 -1.81,-0.538 -1.736,-1.932 0.126,-2.396 -0.264,-1.897 1.984,-2.09 1.642,-0.138 1.877,0.626 1.637,1.719 z"
   id="path3527"
   style="fill:#c69928" />
	<path
   d="m 172.863,73.307 c 0,-3.733 0.002,-7.467 0,-11.2 -0.002,-3.128 -1.329,-5.161 -4.207,-6.22 -3.362,-1.236 -6.777,-1.247 -10.147,-0.047 -3.056,1.089 -4.365,3.076 -4.367,6.401 -0.005,7.118 -0.002,14.237 -0.002,21.355 0,2.593 0.002,2.528 2.471,2.596 1.09,0.029 1.375,-0.309 1.347,-1.417 -0.075,-2.936 0.005,-5.874 -0.044,-8.811 -0.015,-0.914 0.252,-1.2 1.138,-1.184 2.972,0.051 5.947,0.065 8.919,-0.007 1.007,-0.023 1.183,0.37 1.165,1.292 -0.051,2.487 -0.018,4.977 -0.018,7.466 0,2.674 0.001,2.631 2.554,2.652 0.921,0.009 1.226,-0.23 1.213,-1.23 -0.056,-3.88 -0.022,-7.763 -0.022,-11.646 z m -4.942,-2.38 c -1.481,-0.073 -2.971,-0.02 -4.458,-0.02 -1.486,0 -2.975,-0.037 -4.461,0.015 -0.788,0.028 -1.104,-0.192 -1.087,-1.076 0.05,-2.639 0.039,-5.277 0.007,-7.916 -0.015,-1.253 0.655,-1.981 1.658,-2.352 2.615,-0.965 5.265,-0.976 7.881,0.014 1.148,0.435 1.71,1.289 1.674,2.643 -0.067,2.487 -0.065,4.979 0.004,7.468 0.028,1.006 -0.295,1.271 -1.218,1.224 z"
   id="path3529"
   style="fill:#c59723" />
</g>
</svg>